%YAML 1.1
%TAG !u! tag:unity3d.com,2011:
--- !u!114 &11400000
MonoBehaviour:
  m_ObjectHideFlags: 0
  m_PrefabParentObject: {fileID: 0}
  m_PrefabInternal: {fileID: 0}
  m_GameObject: {fileID: 0}
  m_Enabled: 1
  m_EditorHideFlags: 0
  m_Script: {fileID: 11500000, guid: 234e1011475388c4fb03c7af00b7bc11, type: 3}
  m_Name: Metal
  m_EditorClassIdentifier: 
  scannerName: Metal
  layerFilter: 4
  colorfilterMat: {fileID: 2100000, guid: 0903e66830280c34d85c3ebc8351be5c, type: 2}
  handleDecoration: {fileID: 21300000, guid: 051236772e6a566449c57b2bb34f9f7a, type: 3}
