%YAML 1.1
%TAG !u! tag:unity3d.com,2011:
--- !u!114 &11400000
MonoBehaviour:
  m_ObjectHideFlags: 0
  m_PrefabParentObject: {fileID: 0}
  m_PrefabInternal: {fileID: 0}
  m_GameObject: {fileID: 0}
  m_Enabled: 1
  m_EditorHideFlags: 0
  m_Script: {fileID: 11500000, guid: 234e1011475388c4fb03c7af00b7bc11, type: 3}
  m_Name: Spiked
  m_EditorClassIdentifier: 
  scannerName: Spiked
  layerFilter: 8
  colorfilterMat: {fileID: 2100000, guid: 0903e66830280c34d85c3ebc8351be5c, type: 2}
  handleDecoration: {fileID: 21300000, guid: 8b8b92a1a1d1cd64e957a459a7827242, type: 3}
