%YAML 1.1
%TAG !u! tag:unity3d.com,2011:
--- !u!114 &11400000
MonoBehaviour:
  m_ObjectHideFlags: 0
  m_PrefabParentObject: {fileID: 0}
  m_PrefabInternal: {fileID: 0}
  m_GameObject: {fileID: 0}
  m_Enabled: 1
  m_EditorHideFlags: 0
  m_Script: {fileID: 11500000, guid: 9801174c3780ecf479d8de72461a059c, type: 3}
  m_Name: CupritData
  m_EditorClassIdentifier: 
  alienCulprit: {fileID: 11400000, guid: 926515be195e27041a6332cdebd92f54, type: 2}
  alienClones:
  - {fileID: 11400000, guid: 465b85800d268bd45b76b6d521d83a70, type: 2}
  - {fileID: 11400000, guid: 7a4a705b71d39874b857335dbce9299b, type: 2}
