%YAML 1.1
%TAG !u! tag:unity3d.com,2011:
--- !u!114 &11400000
MonoBehaviour:
  m_ObjectHideFlags: 0
  m_PrefabParentObject: {fileID: 0}
  m_PrefabInternal: {fileID: 0}
  m_GameObject: {fileID: 0}
  m_Enabled: 1
  m_EditorHideFlags: 0
  m_Script: {fileID: 11500000, guid: 79e83c1c1efb42d40aa7a131e8f07f4f, type: 3}
  m_Name: CulpritAlien1
  m_EditorClassIdentifier: 
  Head: 1
  Arms: 2
  Body: 7
  Legs: 5
  HaveAStory: 1
  Name: Safi la plus belle
  Story: "Accus\xE9 d'\xEAtre la plus mignonne des petites lapines d'amour."
  Hash: Head_Rock/Arms_Furr/Body_Reptile/Legs_Tentacle
