%YAML 1.1
%TAG !u! tag:unity3d.com,2011:
--- !u!114 &11400000
MonoBehaviour:
  m_ObjectHideFlags: 0
  m_PrefabParentObject: {fileID: 0}
  m_PrefabInternal: {fileID: 0}
  m_GameObject: {fileID: 0}
  m_Enabled: 1
  m_EditorHideFlags: 0
  m_Script: {fileID: 11500000, guid: 9801174c3780ecf479d8de72461a059c, type: 3}
  m_Name: CupritData
  m_EditorClassIdentifier: 
  alienCulprit: {fileID: 11400000, guid: 3780cb1ebd7e561408e41804b52a7c18, type: 2}
  alienClones:
  - {fileID: 11400000, guid: a66a8c779c3ff58429480b3a24d730e4, type: 2}
  - {fileID: 11400000, guid: 5fe2280a40c0e9c40a7ba062d0905f53, type: 2}
