%YAML 1.1
%TAG !u! tag:unity3d.com,2011:
--- !u!114 &11400000
MonoBehaviour:
  m_ObjectHideFlags: 0
  m_PrefabParentObject: {fileID: 0}
  m_PrefabInternal: {fileID: 0}
  m_GameObject: {fileID: 0}
  m_Enabled: 1
  m_EditorHideFlags: 0
  m_Script: {fileID: 11500000, guid: 9801174c3780ecf479d8de72461a059c, type: 3}
  m_Name: CupritData
  m_EditorClassIdentifier: 
  alienCulprit: {fileID: 11400000, guid: 11665282e90cb514b9e0676cccfffa77, type: 2}
  alienClones:
  - {fileID: 11400000, guid: 2df3f9e21b8250a4d97f7e4ead928231, type: 2}
  - {fileID: 11400000, guid: e10e07f3db581784f9b43b21272c3a2b, type: 2}
