%YAML 1.1
%TAG !u! tag:unity3d.com,2011:
--- !u!114 &11400000
MonoBehaviour:
  m_ObjectHideFlags: 0
  m_PrefabParentObject: {fileID: 0}
  m_PrefabInternal: {fileID: 0}
  m_GameObject: {fileID: 0}
  m_Enabled: 1
  m_EditorHideFlags: 0
  m_Script: {fileID: 11500000, guid: 55ff4081700023345b20a32ab205dd0b, type: 3}
  m_Name: Arms_Spiked
  m_EditorClassIdentifier: 
  head: {fileID: 0}
  eyes: {fileID: 0}
  mouth: {fileID: 0}
  eyebrows: {fileID: 0}
  body: {fileID: 0}
  leftUpperArm: {fileID: 21300000, guid: 4834aa9c173310c4da393255888d300d, type: 3}
  leftLowerArm: {fileID: 21300000, guid: 0befdb22d4f23d942b88dcce8a2842ba, type: 3}
  leftHand: {fileID: 21300000, guid: c73e56fa429a8c24a80fdfe7d3b5aa05, type: 3}
  rightUpperArm: {fileID: 21300000, guid: ffd9089580460fd438c53c64b50c25c2, type: 3}
  rightLowerArm: {fileID: 21300000, guid: 6137dbfef9eff90449a49c5e3ba15cf7, type: 3}
  rightHand: {fileID: 21300000, guid: 9a400e38f57252e4ca5cfc83a5df0dad, type: 3}
  leftUpperLeg: {fileID: 0}
  leftLowerLeg: {fileID: 0}
  rightUpperLeg: {fileID: 0}
  rightLowerLeg: {fileID: 0}
