%YAML 1.1
%TAG !u! tag:unity3d.com,2011:
--- !u!114 &11400000
MonoBehaviour:
  m_ObjectHideFlags: 0
  m_PrefabParentObject: {fileID: 0}
  m_PrefabInternal: {fileID: 0}
  m_GameObject: {fileID: 0}
  m_Enabled: 1
  m_EditorHideFlags: 0
  m_Script: {fileID: 11500000, guid: 55ff4081700023345b20a32ab205dd0b, type: 3}
  m_Name: Arms_Furr
  m_EditorClassIdentifier: 
  head: {fileID: 0}
  eyes: {fileID: 0}
  mouth: {fileID: 0}
  eyebrows: {fileID: 0}
  body: {fileID: 0}
  leftUpperArm: {fileID: 21300000, guid: 37270e2c3d5d5d54785e54c03c665cf4, type: 3}
  leftLowerArm: {fileID: 21300000, guid: 71e3a2dc6e6f93a418505167fc318767, type: 3}
  leftHand: {fileID: 21300000, guid: 4880e96bfaa157b4f8fc9bc1e6b834f4, type: 3}
  rightUpperArm: {fileID: 21300000, guid: 22ae3cbcca8411345b0db0f0cae3bd1a, type: 3}
  rightLowerArm: {fileID: 21300000, guid: cf8d9a541de28e340935b6736bbb85b4, type: 3}
  rightHand: {fileID: 21300000, guid: 10ea17608b481194da2d84e98368c2e1, type: 3}
  leftUpperLeg: {fileID: 0}
  leftLowerLeg: {fileID: 0}
  rightUpperLeg: {fileID: 0}
  rightLowerLeg: {fileID: 0}
