%YAML 1.1
%TAG !u! tag:unity3d.com,2011:
--- !u!114 &11400000
MonoBehaviour:
  m_ObjectHideFlags: 0
  m_PrefabParentObject: {fileID: 0}
  m_PrefabInternal: {fileID: 0}
  m_GameObject: {fileID: 0}
  m_Enabled: 1
  m_EditorHideFlags: 0
  m_Script: {fileID: 11500000, guid: 55ff4081700023345b20a32ab205dd0b, type: 3}
  m_Name: Body_Furr
  m_EditorClassIdentifier: 
  head: {fileID: 0}
  eyes: []
  mouth: []
  eyebrows: {fileID: 0}
  body: {fileID: 21300000, guid: 88486f578a8421c49b6704428f79fb73, type: 3}
  leftUpperArm: {fileID: 0}
  leftLowerArm: {fileID: 0}
  leftHand: []
  rightUpperArm: {fileID: 0}
  rightLowerArm: {fileID: 0}
  rightHand: []
  leftUpperLeg: {fileID: 0}
  leftLowerLeg: {fileID: 0}
  rightUpperLeg: {fileID: 0}
  rightLowerLeg: {fileID: 0}
