%YAML 1.1
%TAG !u! tag:unity3d.com,2011:
--- !u!114 &11400000
MonoBehaviour:
  m_ObjectHideFlags: 0
  m_PrefabParentObject: {fileID: 0}
  m_PrefabInternal: {fileID: 0}
  m_GameObject: {fileID: 0}
  m_Enabled: 1
  m_EditorHideFlags: 0
  m_Script: {fileID: 11500000, guid: 55ff4081700023345b20a32ab205dd0b, type: 3}
  m_Name: Legs_Smell
  m_EditorClassIdentifier: 
  head: {fileID: 0}
  eyes: []
  mouth: []
  eyebrows: {fileID: 0}
  body: {fileID: 0}
  leftUpperArm: {fileID: 0}
  leftLowerArm: {fileID: 0}
  leftHand: []
  rightUpperArm: {fileID: 0}
  rightLowerArm: {fileID: 0}
  rightHand: []
  leftUpperLeg: {fileID: 21300000, guid: 53e2449057713e4459e0e5bf26cd9592, type: 3}
  leftLowerLeg: {fileID: 21300000, guid: ece44cb34dc41d848a5e785a641481e7, type: 3}
  rightUpperLeg: {fileID: 21300000, guid: 7ea2e1515466b524e9ddd1957bce8dca, type: 3}
  rightLowerLeg: {fileID: 21300000, guid: c99c809737155ed4f954bb088918e710, type: 3}
