%YAML 1.1
%TAG !u! tag:unity3d.com,2011:
--- !u!114 &11400000
MonoBehaviour:
  m_ObjectHideFlags: 0
  m_PrefabParentObject: {fileID: 0}
  m_PrefabInternal: {fileID: 0}
  m_GameObject: {fileID: 0}
  m_Enabled: 1
  m_EditorHideFlags: 0
  m_Script: {fileID: 11500000, guid: 55ff4081700023345b20a32ab205dd0b, type: 3}
  m_Name: Legs_Tentacle
  m_EditorClassIdentifier: 
  head: {fileID: 0}
  eyes: []
  mouth: []
  eyebrows: {fileID: 0}
  body: {fileID: 0}
  leftUpperArm: {fileID: 0}
  leftLowerArm: {fileID: 0}
  leftHand: []
  rightUpperArm: {fileID: 0}
  rightLowerArm: {fileID: 0}
  rightHand: []
  leftUpperLeg: {fileID: 21300000, guid: e859d5cc662523e41b2030881be95ea7, type: 3}
  leftLowerLeg: {fileID: 21300000, guid: a4f99c306687e0242ab30eb8ce1ca0ae, type: 3}
  rightUpperLeg: {fileID: 21300000, guid: ecfa3011f396188428b5c81ff3a8f37a, type: 3}
  rightLowerLeg: {fileID: 21300000, guid: 006355453658b024089196712c4ec61d, type: 3}
