%YAML 1.1
%TAG !u! tag:unity3d.com,2011:
--- !u!114 &11400000
MonoBehaviour:
  m_ObjectHideFlags: 0
  m_PrefabParentObject: {fileID: 0}
  m_PrefabInternal: {fileID: 0}
  m_GameObject: {fileID: 0}
  m_Enabled: 1
  m_EditorHideFlags: 0
  m_Script: {fileID: 11500000, guid: 55ff4081700023345b20a32ab205dd0b, type: 3}
  m_Name: Legs_Rock
  m_EditorClassIdentifier: 
  head: {fileID: 0}
  eyes: []
  mouth: []
  eyebrows: {fileID: 0}
  body: {fileID: 0}
  leftUpperArm: {fileID: 0}
  leftLowerArm: {fileID: 0}
  leftHand: []
  rightUpperArm: {fileID: 0}
  rightLowerArm: {fileID: 0}
  rightHand: []
  leftUpperLeg: {fileID: 21300000, guid: 045eafaf9f3b0e94d959b209f96c7f7f, type: 3}
  leftLowerLeg: {fileID: 21300000, guid: 4e8688a5a5eea5547889475e5fdb8869, type: 3}
  rightUpperLeg: {fileID: 21300000, guid: 31603294e5eb57c45b9d4d8415a19478, type: 3}
  rightLowerLeg: {fileID: 21300000, guid: fbe3e655926308645bb1967e78254770, type: 3}
