%YAML 1.1
%TAG !u! tag:unity3d.com,2011:
--- !u!114 &11400000
MonoBehaviour:
  m_ObjectHideFlags: 0
  m_PrefabParentObject: {fileID: 0}
  m_PrefabInternal: {fileID: 0}
  m_GameObject: {fileID: 0}
  m_Enabled: 1
  m_EditorHideFlags: 0
  m_Script: {fileID: 11500000, guid: 55ff4081700023345b20a32ab205dd0b, type: 3}
  m_Name: Legs_Eye
  m_EditorClassIdentifier: 
  head: {fileID: 0}
  eyes: []
  mouth: []
  eyebrows: {fileID: 0}
  body: {fileID: 0}
  leftUpperArm: {fileID: 0}
  leftLowerArm: {fileID: 0}
  leftHand: []
  rightUpperArm: {fileID: 0}
  rightLowerArm: {fileID: 0}
  rightHand: []
  leftUpperLeg: {fileID: 21300000, guid: cbae6a4a19ca93642835ef446070fd9f, type: 3}
  leftLowerLeg: {fileID: 21300000, guid: 946e7edca14a07448802e2ed49f7d772, type: 3}
  rightUpperLeg: {fileID: 21300000, guid: 543a07d0f723a5548be07167f7619165, type: 3}
  rightLowerLeg: {fileID: 21300000, guid: fc3526e980a786e46b8353cdad53d54e, type: 3}
