%YAML 1.1
%TAG !u! tag:unity3d.com,2011:
--- !u!114 &11400000
MonoBehaviour:
  m_ObjectHideFlags: 0
  m_PrefabParentObject: {fileID: 0}
  m_PrefabInternal: {fileID: 0}
  m_GameObject: {fileID: 0}
  m_Enabled: 1
  m_EditorHideFlags: 0
  m_Script: {fileID: 11500000, guid: d88ee94de8c53ee429ef9fdaea600f32, type: 3}
  m_Name: AlienStory 37
  m_EditorClassIdentifier: 
  Name: Schnafi La lapine
  Story: "Recherch\xE9 activement par les autorit\xE9s pour vol d'endives. Aussi coupable
    d'\xEAtre la plus belle de toutes les petites lapines de la galaxie <3."
