%YAML 1.1
%TAG !u! tag:unity3d.com,2011:
--- !u!114 &11400000
MonoBehaviour:
  m_ObjectHideFlags: 0
  m_PrefabParentObject: {fileID: 0}
  m_PrefabInternal: {fileID: 0}
  m_GameObject: {fileID: 0}
  m_Enabled: 1
  m_EditorHideFlags: 0
  m_Script: {fileID: 11500000, guid: d88ee94de8c53ee429ef9fdaea600f32, type: 3}
  m_Name: AlienStory 11
  m_EditorClassIdentifier: 
  Name: Anak Morlo
  Story: "Farceur de mauvais go\xFBt qui se serait montr\xE9 \xE0 bord d'un v\xE9hicule
    non autoris\xE9, une soucoupe volante, aux abords de la plan\xE8te Terre. Ridiculis\xE9e,
    la coalition alien cherche activement le coupable de cette mauvais blague."
