%YAML 1.1
%TAG !u! tag:unity3d.com,2011:
--- !u!114 &11400000
MonoBehaviour:
  m_ObjectHideFlags: 0
  m_PrefabParentObject: {fileID: 0}
  m_PrefabInternal: {fileID: 0}
  m_GameObject: {fileID: 0}
  m_Enabled: 1
  m_EditorHideFlags: 0
  m_Script: {fileID: 11500000, guid: d88ee94de8c53ee429ef9fdaea600f32, type: 3}
  m_Name: AlienStory 27
  m_EditorClassIdentifier: 
  Name: Gourd Asse
  Story: "Bavarde inv\xE9t\xE9r\xE9e qui prendrait un malin plaisir \xE0 saouler de
    mots les autres clients de l'H\xF4tel Californalien. Le personnel la recherche
    activement pour la reconduire \xE0 la sortie."
