%YAML 1.1
%TAG !u! tag:unity3d.com,2011:
--- !u!114 &11400000
MonoBehaviour:
  m_ObjectHideFlags: 0
  m_PrefabParentObject: {fileID: 0}
  m_PrefabInternal: {fileID: 0}
  m_GameObject: {fileID: 0}
  m_Enabled: 1
  m_EditorHideFlags: 0
  m_Script: {fileID: 11500000, guid: d88ee94de8c53ee429ef9fdaea600f32, type: 3}
  m_Name: AlienStory 12
  m_EditorClassIdentifier: 
  Name: Ranr Idabi
  Story: "Vandale de grand chemin qui aurait placard\xE9 plusieurs space invaders
    \xE0 travers la galaxie. L'association de lutte contre la caricature alienophobe
    s'insurge."
