%YAML 1.1
%TAG !u! tag:unity3d.com,2011:
--- !u!114 &11400000
MonoBehaviour:
  m_ObjectHideFlags: 0
  m_PrefabParentObject: {fileID: 0}
  m_PrefabInternal: {fileID: 0}
  m_GameObject: {fileID: 0}
  m_Enabled: 1
  m_EditorHideFlags: 0
  m_Script: {fileID: 11500000, guid: d88ee94de8c53ee429ef9fdaea600f32, type: 3}
  m_Name: AlienStory 1
  m_EditorClassIdentifier: 
  Name: Sculpto Presto
  Story: "Malfrat lourdeau qui aurait subtilis\xE9 la derni\xE8re part de pizza Nova
    de la galaxie Voie Lact\xE9e apr\xE8s avoir tabass\xE9 d\u2019autres lascars convoitant
    la m\xEAme chose. Un doute demeure quant \xE0 la nature de cette derni\xE8re part
    de pizza : chorizo ou quatre fromages."
