%YAML 1.1
%TAG !u! tag:unity3d.com,2011:
--- !u!114 &11400000
MonoBehaviour:
  m_ObjectHideFlags: 0
  m_PrefabParentObject: {fileID: 0}
  m_PrefabInternal: {fileID: 0}
  m_GameObject: {fileID: 0}
  m_Enabled: 1
  m_EditorHideFlags: 0
  m_Script: {fileID: 11500000, guid: d88ee94de8c53ee429ef9fdaea600f32, type: 3}
  m_Name: AlienStory 5
  m_EditorClassIdentifier: 
  Name: Iarell Eranen
  Story: "Vieux loup de l\u2019espace qui aurait refus\xE9 de passer en vitesse interstellaire
    lors du passage de son vaisseau de croisi\xE8re dans une r\xE9serve naturelle
    galactique. Il en aurait r\xE9sult\xE9 le d\xE9c\xE8s de plusieurs milliers de
    personnes durant les 150 000 ans de voyage."
