%YAML 1.1
%TAG !u! tag:unity3d.com,2011:
--- !u!114 &11400000
MonoBehaviour:
  m_ObjectHideFlags: 0
  m_PrefabParentObject: {fileID: 0}
  m_PrefabInternal: {fileID: 0}
  m_GameObject: {fileID: 0}
  m_Enabled: 1
  m_EditorHideFlags: 0
  m_Script: {fileID: 11500000, guid: d88ee94de8c53ee429ef9fdaea600f32, type: 3}
  m_Name: AlienStory 10
  m_EditorClassIdentifier: 
  Name: Paupren Feriper
  Story: "Dangereux chauffard qui aurait renvers\xE9 un pigeon stellaire, le projetant
    dans l'orbite de la plan\xE8te Parisi. De nombreuses pr\xE9cipitations de fiente
    sont \xE0 d\xE9plorer et le syndicat des conservateurs de monuments r\xE9clame
    r\xE9paration."
