%YAML 1.1
%TAG !u! tag:unity3d.com,2011:
--- !u!114 &11400000
MonoBehaviour:
  m_ObjectHideFlags: 0
  m_PrefabParentObject: {fileID: 0}
  m_PrefabInternal: {fileID: 0}
  m_GameObject: {fileID: 0}
  m_Enabled: 1
  m_EditorHideFlags: 0
  m_Script: {fileID: 11500000, guid: d88ee94de8c53ee429ef9fdaea600f32, type: 3}
  m_Name: AlienStory 33
  m_EditorClassIdentifier: 
  Name: Daiphis Silan
  Story: "Enqu\xEAteur priv\xE9 qui aurait trafiqu\xE9 les radars des forces de l\"ordre
    pour les emp\xEAcher de mener \xE0 bien leurs recherches dans un b\xE2timent pas
    si abandonn\xE9. De nombreuses victimes sont \xE0 d\xE9plorer et un gros nez rouge
    encombre l'\xE9cran."
