%YAML 1.1
%TAG !u! tag:unity3d.com,2011:
--- !u!114 &11400000
MonoBehaviour:
  m_ObjectHideFlags: 0
  m_PrefabParentObject: {fileID: 0}
  m_PrefabInternal: {fileID: 0}
  m_GameObject: {fileID: 0}
  m_Enabled: 1
  m_EditorHideFlags: 0
  m_Script: {fileID: 11500000, guid: d88ee94de8c53ee429ef9fdaea600f32, type: 3}
  m_Name: AlienStory 32
  m_EditorClassIdentifier: 
  Name: Notwen Caasi
  Story: "Scientifique un peu extr\xEAme qui aurait involontairement modifi\xE9 la
    gravit\xE9 de sa plan\xE8te. Les habitants qui ne savent plus o\xF9 est le haut
    ni le bas r\xE9clament plus de torches pour se r\xE9p\xE9rer."
