%YAML 1.1
%TAG !u! tag:unity3d.com,2011:
--- !u!114 &11400000
MonoBehaviour:
  m_ObjectHideFlags: 0
  m_PrefabParentObject: {fileID: 0}
  m_PrefabInternal: {fileID: 0}
  m_GameObject: {fileID: 0}
  m_Enabled: 1
  m_EditorHideFlags: 0
  m_Script: {fileID: 11500000, guid: 9801174c3780ecf479d8de72461a059c, type: 3}
  m_Name: CupritData
  m_EditorClassIdentifier: 
  alienCulprit: {fileID: 11400000, guid: 47d68d14e0a67294ca28ff0607440637, type: 2}
  alienClones:
  - {fileID: 11400000, guid: 61dde134b5c3adb41a740b05a7efc734, type: 2}
  - {fileID: 11400000, guid: 2b18043a90d2b364db0bcf6bdede3a6b, type: 2}
