%YAML 1.1
%TAG !u! tag:unity3d.com,2011:
--- !u!114 &11400000
MonoBehaviour:
  m_ObjectHideFlags: 0
  m_PrefabParentObject: {fileID: 0}
  m_PrefabInternal: {fileID: 0}
  m_GameObject: {fileID: 0}
  m_Enabled: 1
  m_EditorHideFlags: 0
  m_Script: {fileID: 11500000, guid: bc24abe9d6affb547a7f57aa121e5f26, type: 3}
  m_Name: AlienStoryDataBase
  m_EditorClassIdentifier: 
  stories:
  - {fileID: 11400000, guid: 64facc80a53357f4f9e397816d3f7d14, type: 2}
  - {fileID: 11400000, guid: c7873dc09d67ddb419ef5fb784918887, type: 2}
  - {fileID: 11400000, guid: 4996630174d412445b364e325f8a1d4d, type: 2}
  - {fileID: 11400000, guid: a108e3113c3887f48866ca16cfe9ee5f, type: 2}
  - {fileID: 11400000, guid: 6589b3c179b4df049a293c2b81c9bf4d, type: 2}
  - {fileID: 11400000, guid: d46fffa245c36934984690957a17c610, type: 2}
  - {fileID: 11400000, guid: 7a1a3533a11a2a0408c40f49f84dcb7e, type: 2}
  - {fileID: 11400000, guid: a5db326388d2cca428e206e0c8ec4302, type: 2}
  - {fileID: 11400000, guid: 733eb8a39270a5d46955afad2af1e6d4, type: 2}
  - {fileID: 11400000, guid: ce9f365526be1cd48a0ba8e70e982150, type: 2}
  - {fileID: 11400000, guid: 74a35f3787d781b4089139b2be64419d, type: 2}
  - {fileID: 11400000, guid: 5c20d7972300d044a8a03a39faaecc48, type: 2}
  - {fileID: 11400000, guid: 374310b71b5000f49833d69384f17060, type: 2}
  - {fileID: 11400000, guid: 56277cf7af19c3d46a8c284b308e750a, type: 2}
  - {fileID: 11400000, guid: e8a3ac38a5505c3458cde5c4e69bec31, type: 2}
  - {fileID: 11400000, guid: 7e05ceb92ad4b1742b5bd5e57abb0f69, type: 2}
  - {fileID: 11400000, guid: a892c96aea9a13b4b9890fecffe59fe7, type: 2}
  - {fileID: 11400000, guid: 278fadfbca1ae74479aff88d335258c5, type: 2}
  - {fileID: 11400000, guid: 792ab1fcab0448548b02d4c10a17cbcb, type: 2}
  - {fileID: 11400000, guid: 416db59d49e0e9f4ab1946f0a7943000, type: 2}
  - {fileID: 11400000, guid: 2f74aa1ebea6e1d4baed1f76a6add35f, type: 2}
  - {fileID: 11400000, guid: c58f253e3491474458170caa6e093a64, type: 2}
  - {fileID: 11400000, guid: e1bee64e6c915bc42a26a47aeb8129c1, type: 2}
  - {fileID: 11400000, guid: df8d33ee8ecaff642a6180f21471e6d2, type: 2}
  - {fileID: 11400000, guid: 2145d91ff81b0874397606ff4fdb05f8, type: 2}
  - {fileID: 11400000, guid: ea6c228f90018db4b9f0f22c84b12d5f, type: 2}
  - {fileID: 11400000, guid: 0bf0eaed69f6c4b459c1d699fd5720a7, type: 2}
  - {fileID: 11400000, guid: 2e77f7979b25ba74e82c1bd570d0899b, type: 2}
  - {fileID: 11400000, guid: 490a65aab3fe30442859450930c80440, type: 2}
  - {fileID: 11400000, guid: 4c0b797292ac6b1419808b95530b41dc, type: 2}
  - {fileID: 11400000, guid: 4d2936ca0b7da6445a49a2d91cc9bff7, type: 2}
  - {fileID: 11400000, guid: 6be0bbf6de11a384bbfa0be0c7fa74f0, type: 2}
  - {fileID: 11400000, guid: 79554186c608796479cb53ddeb1ce766, type: 2}
  - {fileID: 11400000, guid: cc0bf7dbcbde41f43a1ce8cbb338040a, type: 2}
  - {fileID: 11400000, guid: cdf7af82a4b30f648aead546f85cf268, type: 2}
  - {fileID: 11400000, guid: e93ad08ba18198c478e7603878bd8d19, type: 2}
  - {fileID: 11400000, guid: e9902e7a451100a4f991b79aa12df8d1, type: 2}
  - {fileID: 11400000, guid: 4428653d57f35604c885615beb6e8754, type: 2}
