%YAML 1.1
%TAG !u! tag:unity3d.com,2011:
--- !u!114 &11400000
MonoBehaviour:
  m_ObjectHideFlags: 0
  m_PrefabParentObject: {fileID: 0}
  m_PrefabInternal: {fileID: 0}
  m_GameObject: {fileID: 0}
  m_Enabled: 1
  m_EditorHideFlags: 0
  m_Script: {fileID: 11500000, guid: 21fd3a247a2cbe946a5341083da26e85, type: 3}
  m_Name: AlienVerifier
  m_EditorClassIdentifier: 
  culprits:
  - {fileID: 11400000, guid: a7c15710035c84442a2491e9fdda8964, type: 2}
  - {fileID: 11400000, guid: 1c7bb012335a00a44b96837f65ca19a7, type: 2}
  - {fileID: 11400000, guid: ccda5c52b00f29d45afc333b477b6e80, type: 2}
  - {fileID: 11400000, guid: 11665282e90cb514b9e0676cccfffa77, type: 2}
  - {fileID: 11400000, guid: 931040138f7fc1c4b928fde6c30eb863, type: 2}
  - {fileID: 11400000, guid: b30d0223dccb4b64abc9f151ed80b7d2, type: 2}
  - {fileID: 11400000, guid: 34e56b634eb0f424eb13a0a0a57b3b76, type: 2}
  - {fileID: 11400000, guid: 08d1c90462a282f4db2dffbd4e46c268, type: 2}
  - {fileID: 11400000, guid: 47d68d14e0a67294ca28ff0607440637, type: 2}
  - {fileID: 11400000, guid: fcc6e905374eb5c4f9ebaacaf3e34f87, type: 2}
  - {fileID: 11400000, guid: 3b006e95d7e9d684daf196a3b5bf9c60, type: 2}
  - {fileID: 11400000, guid: 5f088316b139dee40a9b99826620280d, type: 2}
  - {fileID: 11400000, guid: b9a8923760b7f114086e83ca5bd81c2d, type: 2}
  - {fileID: 11400000, guid: 3a7b627711718c24c83d33e229daec29, type: 2}
  - {fileID: 11400000, guid: fbf84da78ee95f84185a5c4ee7d96290, type: 2}
  - {fileID: 11400000, guid: 2c2690488ee948242b6df6cc4f533836, type: 2}
  - {fileID: 11400000, guid: 847d3b99ba6ff464e9410160ca5889c5, type: 2}
  - {fileID: 11400000, guid: 619a46d9011a9db4cb627bf77332abed, type: 2}
  - {fileID: 11400000, guid: 736ae53af63891749824460e12c6a2b3, type: 2}
  - {fileID: 11400000, guid: 058ee94ae5860f144b202295d8458f67, type: 2}
  - {fileID: 11400000, guid: 2da963ca9ca088741b03384ddc6f6c13, type: 2}
  - {fileID: 11400000, guid: 3e7d392b552fa0a4083ed4cf0f71bdb2, type: 2}
  - {fileID: 11400000, guid: 9e67835b09f72894d8bf2743849b16f0, type: 2}
  - {fileID: 11400000, guid: 9ed5ec4c766a6c84a98099c0273a3a58, type: 2}
  - {fileID: 11400000, guid: a5a2ce5c3cf517c42aecff88f36e10fb, type: 2}
  - {fileID: 11400000, guid: e65744bd7ed59d540a09f33bc43f16cf, type: 2}
  - {fileID: 11400000, guid: 96878abd02ed92746a5459e4dd85beea, type: 2}
  - {fileID: 11400000, guid: 3780cb1ebd7e561408e41804b52a7c18, type: 2}
  - {fileID: 11400000, guid: 3db0663e34405434c852d7dba88faf8e, type: 2}
  - {fileID: 11400000, guid: 12c29c9ee2214a24185526b7e1ccb5d0, type: 2}
  - {fileID: 11400000, guid: 926515be195e27041a6332cdebd92f54, type: 2}
  - {fileID: 11400000, guid: 45548aff1f66068478ab6ecaa773eadd, type: 2}
  suspects:
  - {fileID: 11400000, guid: a7c15710035c84442a2491e9fdda8964, type: 2}
  - {fileID: 11400000, guid: 1c7bb012335a00a44b96837f65ca19a7, type: 2}
  - {fileID: 11400000, guid: ccda5c52b00f29d45afc333b477b6e80, type: 2}
  - {fileID: 11400000, guid: 11665282e90cb514b9e0676cccfffa77, type: 2}
  - {fileID: 11400000, guid: 931040138f7fc1c4b928fde6c30eb863, type: 2}
  - {fileID: 11400000, guid: b30d0223dccb4b64abc9f151ed80b7d2, type: 2}
  - {fileID: 11400000, guid: 34e56b634eb0f424eb13a0a0a57b3b76, type: 2}
  - {fileID: 11400000, guid: 08d1c90462a282f4db2dffbd4e46c268, type: 2}
  - {fileID: 11400000, guid: 47d68d14e0a67294ca28ff0607440637, type: 2}
  - {fileID: 11400000, guid: fcc6e905374eb5c4f9ebaacaf3e34f87, type: 2}
  - {fileID: 11400000, guid: 3b006e95d7e9d684daf196a3b5bf9c60, type: 2}
  - {fileID: 11400000, guid: 5f088316b139dee40a9b99826620280d, type: 2}
  - {fileID: 11400000, guid: b9a8923760b7f114086e83ca5bd81c2d, type: 2}
  - {fileID: 11400000, guid: 3a7b627711718c24c83d33e229daec29, type: 2}
  - {fileID: 11400000, guid: fbf84da78ee95f84185a5c4ee7d96290, type: 2}
  - {fileID: 11400000, guid: 2c2690488ee948242b6df6cc4f533836, type: 2}
  - {fileID: 11400000, guid: 847d3b99ba6ff464e9410160ca5889c5, type: 2}
  - {fileID: 11400000, guid: 619a46d9011a9db4cb627bf77332abed, type: 2}
  - {fileID: 11400000, guid: 736ae53af63891749824460e12c6a2b3, type: 2}
  - {fileID: 11400000, guid: 058ee94ae5860f144b202295d8458f67, type: 2}
  - {fileID: 11400000, guid: 2da963ca9ca088741b03384ddc6f6c13, type: 2}
  - {fileID: 11400000, guid: 3e7d392b552fa0a4083ed4cf0f71bdb2, type: 2}
  - {fileID: 11400000, guid: 9e67835b09f72894d8bf2743849b16f0, type: 2}
  - {fileID: 11400000, guid: 9ed5ec4c766a6c84a98099c0273a3a58, type: 2}
  - {fileID: 11400000, guid: a5a2ce5c3cf517c42aecff88f36e10fb, type: 2}
  - {fileID: 11400000, guid: e65744bd7ed59d540a09f33bc43f16cf, type: 2}
  - {fileID: 11400000, guid: 96878abd02ed92746a5459e4dd85beea, type: 2}
  - {fileID: 11400000, guid: 3780cb1ebd7e561408e41804b52a7c18, type: 2}
  - {fileID: 11400000, guid: 3db0663e34405434c852d7dba88faf8e, type: 2}
  - {fileID: 11400000, guid: 12c29c9ee2214a24185526b7e1ccb5d0, type: 2}
  - {fileID: 11400000, guid: 926515be195e27041a6332cdebd92f54, type: 2}
  - {fileID: 11400000, guid: 45548aff1f66068478ab6ecaa773eadd, type: 2}
