%YAML 1.1
%TAG !u! tag:unity3d.com,2011:
--- !u!114 &11400000
MonoBehaviour:
  m_ObjectHideFlags: 0
  m_PrefabParentObject: {fileID: 0}
  m_PrefabInternal: {fileID: 0}
  m_GameObject: {fileID: 0}
  m_Enabled: 1
  m_EditorHideFlags: 0
  m_Script: {fileID: 11500000, guid: 9801174c3780ecf479d8de72461a059c, type: 3}
  m_Name: CupritData
  m_EditorClassIdentifier: 
  alienCulprit: {fileID: 11400000, guid: fbf84da78ee95f84185a5c4ee7d96290, type: 2}
  alienClones:
  - {fileID: 11400000, guid: 316028a9d419af04fbe98081644beeb7, type: 2}
  - {fileID: 11400000, guid: f9893aa8f4ee5af4a92308b8dcdf7661, type: 2}
