%YAML 1.1
%TAG !u! tag:unity3d.com,2011:
--- !u!114 &11400000
MonoBehaviour:
  m_ObjectHideFlags: 0
  m_PrefabParentObject: {fileID: 0}
  m_PrefabInternal: {fileID: 0}
  m_GameObject: {fileID: 0}
  m_Enabled: 1
  m_EditorHideFlags: 0
  m_Script: {fileID: 11500000, guid: 4c66824c6d5c43340a4868304d6f2161, type: 3}
  m_Name: ScannerList
  m_EditorClassIdentifier: 
  objectName: ScannerList
  scanners:
  - {fileID: 11400000, guid: 68a6f2806578c78488b1b91ffaf0c19f, type: 2}
  - {fileID: 11400000, guid: 96c9693240c093f4189a9b930481949b, type: 2}
  - {fileID: 11400000, guid: 11bfd278f3937444a9360c635d4b5f72, type: 2}
  - {fileID: 11400000, guid: c407a0abc0efdb74898547607ecced05, type: 2}
  - {fileID: 11400000, guid: 8841e3ac2207c2a418bb5856a36738e9, type: 2}
  - {fileID: 11400000, guid: 3f3ac5fe6859bf04c9868acbaf0cdba1, type: 2}
  - {fileID: 11400000, guid: 887f0a356959e4d4493fa1ea0cfd30de, type: 2}
  - {fileID: 11400000, guid: de3d0e2c7865b9843a53b337b75ad91a, type: 2}
