%YAML 1.1
%TAG !u! tag:unity3d.com,2011:
--- !u!114 &11400000
MonoBehaviour:
  m_ObjectHideFlags: 0
  m_PrefabParentObject: {fileID: 0}
  m_PrefabInternal: {fileID: 0}
  m_GameObject: {fileID: 0}
  m_Enabled: 1
  m_EditorHideFlags: 0
  m_Script: {fileID: 11500000, guid: 55ff4081700023345b20a32ab205dd0b, type: 3}
  m_Name: Human3
  m_EditorClassIdentifier: 
  head: {fileID: 21300000, guid: 22c8513fca5c54946833e07ef8e12c27, type: 3}
  eyes: {fileID: 21300000, guid: e0b2173bcb2f3fe448eba7ba991519fc, type: 3}
  mouth: {fileID: 21300000, guid: e67d04acf5ad2d54e84af5ad74cc2968, type: 3}
  eyebrows: {fileID: 21300000, guid: 6459f0089528c4e4e9f2c07484e2a62e, type: 3}
  body: {fileID: 21300000, guid: b47dbe322112aba429878e5c1e882bb2, type: 3}
  leftUpperArm: {fileID: 21300000, guid: 8d088ae87ee51174c92392eeb8babe8d, type: 3}
  leftLowerArm: {fileID: 21300000, guid: 745727fc76daf5546b3eaf417925dd37, type: 3}
  leftHand: {fileID: 21300000, guid: ec01145f01180b24bb3460034ac46c88, type: 3}
  rightUpperArm: {fileID: 21300000, guid: 04b3beec88e431543a1ce972ca3299bf, type: 3}
  rightLowerArm: {fileID: 21300000, guid: 171d6d85f0870574bb87fce46e1b35ba, type: 3}
  rightHand: {fileID: 21300000, guid: 27dd264747330124b8e49d105141e61f, type: 3}
  leftUpperLeg: {fileID: 21300000, guid: 77e4ce4b850d34440b84f39ffb26efa9, type: 3}
  leftLowerLeg: {fileID: 21300000, guid: 051dba9ea8e97454aa3b7817b7781222, type: 3}
  rightUpperLeg: {fileID: 21300000, guid: 3caa2e2916ad4b34bb57181e5359a67d, type: 3}
  rightLowerLeg: {fileID: 21300000, guid: 13539b120f211014e914087269766d77, type: 3}
