%YAML 1.1
%TAG !u! tag:unity3d.com,2011:
--- !u!114 &11400000
MonoBehaviour:
  m_ObjectHideFlags: 0
  m_PrefabParentObject: {fileID: 0}
  m_PrefabInternal: {fileID: 0}
  m_GameObject: {fileID: 0}
  m_Enabled: 1
  m_EditorHideFlags: 0
  m_Script: {fileID: 11500000, guid: 55ff4081700023345b20a32ab205dd0b, type: 3}
  m_Name: Human10
  m_EditorClassIdentifier: 
  head: {fileID: 21300000, guid: f24a39cfc35fa744d96c4cd745f131d7, type: 3}
  eyes: {fileID: 21300000, guid: 62f255dc0666cf4469660664abd51da0, type: 3}
  mouth: {fileID: 21300000, guid: e67d04acf5ad2d54e84af5ad74cc2968, type: 3}
  eyebrows: {fileID: 21300000, guid: 1bc4bda2dbbc4304e8461a567c2f0240, type: 3}
  body: {fileID: 21300000, guid: a47ec4fa7a4f23d4b9008909c5a9c56f, type: 3}
  leftUpperArm: {fileID: 21300000, guid: 809d6dbe2e155744c8bdf73d664832f7, type: 3}
  leftLowerArm: {fileID: 21300000, guid: 7aef869f8d72f5e48a2c4c0940bbce4a, type: 3}
  leftHand: {fileID: 21300000, guid: 0bf83bd8c82347146b4c54c75a029f79, type: 3}
  rightUpperArm: {fileID: 21300000, guid: 1f22f241798ce3d43a295ff42f279389, type: 3}
  rightLowerArm: {fileID: 21300000, guid: 53cebd7d914ef1f459099b84e4ce2a3e, type: 3}
  rightHand: {fileID: 21300000, guid: a615e6c7a217ca445ab6ef6452f96cfb, type: 3}
  leftUpperLeg: {fileID: 21300000, guid: 581f346787c89a849b7cc394eebfdc6b, type: 3}
  leftLowerLeg: {fileID: 21300000, guid: 4bd0c938af528704e971f55daa885d7e, type: 3}
  rightUpperLeg: {fileID: 21300000, guid: 157dabb29f715d749bae111cf771502c, type: 3}
  rightLowerLeg: {fileID: 21300000, guid: 32cc789fcc8ade9418596f9a25ed16f8, type: 3}
