%YAML 1.1
%TAG !u! tag:unity3d.com,2011:
--- !u!114 &11400000
MonoBehaviour:
  m_ObjectHideFlags: 0
  m_PrefabParentObject: {fileID: 0}
  m_PrefabInternal: {fileID: 0}
  m_GameObject: {fileID: 0}
  m_Enabled: 1
  m_EditorHideFlags: 0
  m_Script: {fileID: 11500000, guid: 55ff4081700023345b20a32ab205dd0b, type: 3}
  m_Name: Human21
  m_EditorClassIdentifier: 
  head: {fileID: 21300000, guid: d8a2668b5cf79364bbc66f3a76370c4a, type: 3}
  eyes: {fileID: 21300000, guid: fd8d3222c33014c4eb685042f4b03646, type: 3}
  mouth: {fileID: 21300000, guid: e67d04acf5ad2d54e84af5ad74cc2968, type: 3}
  eyebrows: {fileID: 21300000, guid: b77e27366ebe45142884221bcb0106a4, type: 3}
  body: {fileID: 21300000, guid: 2868abf233b225f4e80b7b729a6295da, type: 3}
  leftUpperArm: {fileID: 21300000, guid: ad5396d09d45a2a458d5ccaf6bac9ead, type: 3}
  leftLowerArm: {fileID: 21300000, guid: 2353b7fd487834345bbc3b101cd9eb9d, type: 3}
  leftHand: {fileID: 21300000, guid: 900a37257ad341b468c0d9af56c120a1, type: 3}
  rightUpperArm: {fileID: 21300000, guid: 3edc15f2df842dc44a9132b6869d921e, type: 3}
  rightLowerArm: {fileID: 21300000, guid: d32bc64405c3c4d4c85a85cb52813236, type: 3}
  rightHand: {fileID: 21300000, guid: eed175430d7ee82498bc625a62f735bf, type: 3}
  leftUpperLeg: {fileID: 21300000, guid: 2f3c21d25e7b10d4485483601bd56b5a, type: 3}
  leftLowerLeg: {fileID: 21300000, guid: 0057d5c75c96cc64f9ee1646e0bd5ea7, type: 3}
  rightUpperLeg: {fileID: 21300000, guid: d4b5268e876cb154099bdce7ce464a44, type: 3}
  rightLowerLeg: {fileID: 21300000, guid: 0fc2b7627c2deab488015fe325f6a4ec, type: 3}
