%YAML 1.1
%TAG !u! tag:unity3d.com,2011:
--- !u!114 &11400000
MonoBehaviour:
  m_ObjectHideFlags: 0
  m_PrefabParentObject: {fileID: 0}
  m_PrefabInternal: {fileID: 0}
  m_GameObject: {fileID: 0}
  m_Enabled: 1
  m_EditorHideFlags: 0
  m_Script: {fileID: 11500000, guid: 55ff4081700023345b20a32ab205dd0b, type: 3}
  m_Name: Human28
  m_EditorClassIdentifier: 
  head: {fileID: 21300000, guid: 1d3c26db318ccf542be06cb7962e5310, type: 3}
  eyes: {fileID: 21300000, guid: 09d618f3ea68dac4a852e6bebaace494, type: 3}
  mouth: {fileID: 21300000, guid: e67d04acf5ad2d54e84af5ad74cc2968, type: 3}
  eyebrows: {fileID: 21300000, guid: 78007587ac8175543a9c10af81d7ba84, type: 3}
  body: {fileID: 21300000, guid: 715bfea2c9751e74ca75f50f758d3df8, type: 3}
  leftUpperArm: {fileID: 21300000, guid: 2f346b5bdb8434f4196d223a623405bc, type: 3}
  leftLowerArm: {fileID: 21300000, guid: bbd7bf5def47e3d478752edcb6c193af, type: 3}
  leftHand: {fileID: 21300000, guid: d36e17ffc3d0fc944a78e78b28c38994, type: 3}
  rightUpperArm: {fileID: 21300000, guid: c73083c3f6e5d0d41bbf3056a9a75757, type: 3}
  rightLowerArm: {fileID: 21300000, guid: f80f1e81794d311479037ae73646f957, type: 3}
  rightHand: {fileID: 21300000, guid: 47093b42a37e00042ac93f37e02acf24, type: 3}
  leftUpperLeg: {fileID: 21300000, guid: 4359f1ef3cffc1448ad4f50170f39a63, type: 3}
  leftLowerLeg: {fileID: 21300000, guid: 50f50a0ad76fc8c44b155fa490bbc587, type: 3}
  rightUpperLeg: {fileID: 21300000, guid: ecd6cf510f451c94eb19746bf331d807, type: 3}
  rightLowerLeg: {fileID: 21300000, guid: ba58f736a92b1a8418aca6b7ff5061e9, type: 3}
