%YAML 1.1
%TAG !u! tag:unity3d.com,2011:
--- !u!114 &11400000
MonoBehaviour:
  m_ObjectHideFlags: 0
  m_PrefabParentObject: {fileID: 0}
  m_PrefabInternal: {fileID: 0}
  m_GameObject: {fileID: 0}
  m_Enabled: 1
  m_EditorHideFlags: 0
  m_Script: {fileID: 11500000, guid: 55ff4081700023345b20a32ab205dd0b, type: 3}
  m_Name: Human19
  m_EditorClassIdentifier: 
  head: {fileID: 21300000, guid: 5190d347e9fd59f4ab2a97293c6b8629, type: 3}
  eyes: {fileID: 21300000, guid: 32ae6ba2aef3aed4198898d1e2e472d3, type: 3}
  mouth: {fileID: 21300000, guid: e67d04acf5ad2d54e84af5ad74cc2968, type: 3}
  eyebrows: {fileID: 21300000, guid: 8dae0e3b473f54147a47e70b320a1fb0, type: 3}
  body: {fileID: 21300000, guid: 59bfcda9e5938f5468deeb0725c84011, type: 3}
  leftUpperArm: {fileID: 21300000, guid: f48f026ad55d8e14bb17e287f64381a6, type: 3}
  leftLowerArm: {fileID: 21300000, guid: 9acfc214c9f17994ca322484f0d7a196, type: 3}
  leftHand: {fileID: 21300000, guid: 07b8bffcb146ded40b2c4ee6999ccbfa, type: 3}
  rightUpperArm: {fileID: 21300000, guid: c8c4173b1032c574490ce89b76c36716, type: 3}
  rightLowerArm: {fileID: 21300000, guid: 03df85512d433e24899f2bc601d25015, type: 3}
  rightHand: {fileID: 21300000, guid: 30056d4864d46d841a70141db6841649, type: 3}
  leftUpperLeg: {fileID: 21300000, guid: 20abeabf666b72f4aa292bc751d572ba, type: 3}
  leftLowerLeg: {fileID: 21300000, guid: 7b07348f88886124e87adf68109513da, type: 3}
  rightUpperLeg: {fileID: 21300000, guid: 7943a44118517e3419e89a6ec5afb0fe, type: 3}
  rightLowerLeg: {fileID: 21300000, guid: 89831847455dd91499a7557fd092f8c3, type: 3}
