%YAML 1.1
%TAG !u! tag:unity3d.com,2011:
--- !u!114 &11400000
MonoBehaviour:
  m_ObjectHideFlags: 0
  m_PrefabParentObject: {fileID: 0}
  m_PrefabInternal: {fileID: 0}
  m_GameObject: {fileID: 0}
  m_Enabled: 1
  m_EditorHideFlags: 0
  m_Script: {fileID: 11500000, guid: 55ff4081700023345b20a32ab205dd0b, type: 3}
  m_Name: Human30
  m_EditorClassIdentifier: 
  head: {fileID: 21300000, guid: 06df70bbadea98149947409e61e53b34, type: 3}
  eyes: {fileID: 21300000, guid: d06175dc45157ab40ae2876b4e97f3d2, type: 3}
  mouth: {fileID: 21300000, guid: e67d04acf5ad2d54e84af5ad74cc2968, type: 3}
  eyebrows: {fileID: 21300000, guid: c1ade7ada198fd64a9b489f8f2d3ab93, type: 3}
  body: {fileID: 21300000, guid: 849af694ed0372e4b8932cbead76bdba, type: 3}
  leftUpperArm: {fileID: 21300000, guid: bc401c4325bbd0c458c4d56fd2c5b9f2, type: 3}
  leftLowerArm: {fileID: 21300000, guid: be926925c40f3c24db178ed07cb1b0d3, type: 3}
  leftHand: {fileID: 21300000, guid: c0847c1d27135444d8127b5b13bb4561, type: 3}
  rightUpperArm: {fileID: 21300000, guid: 752cc382cede41c45866321cb03871b0, type: 3}
  rightLowerArm: {fileID: 21300000, guid: ece3f11b8e8d0834d96735a9aef3fd05, type: 3}
  rightHand: {fileID: 21300000, guid: c43e791bbd2ae8c4aaf4a50aee1ccbf3, type: 3}
  leftUpperLeg: {fileID: 21300000, guid: 85f679eab700755429aaed825e5df936, type: 3}
  leftLowerLeg: {fileID: 21300000, guid: bb3673f143d5b284ea3b79ff62a49759, type: 3}
  rightUpperLeg: {fileID: 21300000, guid: d81dd0343fc7c4b4faccffd46a128977, type: 3}
  rightLowerLeg: {fileID: 21300000, guid: 023c42c26813680489b683c811367325, type: 3}
