%YAML 1.1
%TAG !u! tag:unity3d.com,2011:
--- !u!114 &11400000
MonoBehaviour:
  m_ObjectHideFlags: 0
  m_PrefabParentObject: {fileID: 0}
  m_PrefabInternal: {fileID: 0}
  m_GameObject: {fileID: 0}
  m_Enabled: 1
  m_EditorHideFlags: 0
  m_Script: {fileID: 11500000, guid: 55ff4081700023345b20a32ab205dd0b, type: 3}
  m_Name: Human25
  m_EditorClassIdentifier: 
  head: {fileID: 21300000, guid: 7c32d260002e3494a879e789fd8a842f, type: 3}
  eyes: {fileID: 21300000, guid: 6e84c119753fd2f479922e2cfccba28e, type: 3}
  mouth: {fileID: 21300000, guid: e67d04acf5ad2d54e84af5ad74cc2968, type: 3}
  eyebrows: {fileID: 21300000, guid: 7e1adff743269674bae6f8b64c01b56a, type: 3}
  body: {fileID: 21300000, guid: e1e1d73a15eeb634bb8e6ab46753edda, type: 3}
  leftUpperArm: {fileID: 21300000, guid: fffd70ec986639640820c14d16df8301, type: 3}
  leftLowerArm: {fileID: 21300000, guid: 67cb704e72f334c4388bf9c28d546645, type: 3}
  leftHand: {fileID: 21300000, guid: b44346930ec89ea4cbfca25435d9c856, type: 3}
  rightUpperArm: {fileID: 21300000, guid: 8f8e60511dd315349a9bd56cf2d5a544, type: 3}
  rightLowerArm: {fileID: 21300000, guid: 8b35346f9ce58cb4ca5252ea465ecb47, type: 3}
  rightHand: {fileID: 21300000, guid: 82255a51546c0554590a0ef686ded4d9, type: 3}
  leftUpperLeg: {fileID: 21300000, guid: 553a782fd11239f468d2e3bd573ab10e, type: 3}
  leftLowerLeg: {fileID: 21300000, guid: 7c76036adf85d844aa91c9cd8c96eddf, type: 3}
  rightUpperLeg: {fileID: 21300000, guid: 7d674d7d1a9756947b6d553657961448, type: 3}
  rightLowerLeg: {fileID: 21300000, guid: 39fed4c138d1905498e1c040cdd0722f, type: 3}
