%YAML 1.1
%TAG !u! tag:unity3d.com,2011:
--- !u!114 &11400000
MonoBehaviour:
  m_ObjectHideFlags: 0
  m_PrefabParentObject: {fileID: 0}
  m_PrefabInternal: {fileID: 0}
  m_GameObject: {fileID: 0}
  m_Enabled: 1
  m_EditorHideFlags: 0
  m_Script: {fileID: 11500000, guid: 55ff4081700023345b20a32ab205dd0b, type: 3}
  m_Name: Human22
  m_EditorClassIdentifier: 
  head: {fileID: 21300000, guid: a6d4ec9530982a34c9caf7c786a5c9eb, type: 3}
  eyes: {fileID: 21300000, guid: 2b3dd16475faf1f489d6e965ce15e0a4, type: 3}
  mouth: {fileID: 21300000, guid: e67d04acf5ad2d54e84af5ad74cc2968, type: 3}
  eyebrows: {fileID: 21300000, guid: d2d32c73261108241ab5713637b634fe, type: 3}
  body: {fileID: 21300000, guid: 0900bdd4a527a27419af4a09a94bbc2b, type: 3}
  leftUpperArm: {fileID: 21300000, guid: ef7b17aef7cfd0c468b8cc624a6d8fe0, type: 3}
  leftLowerArm: {fileID: 21300000, guid: 48b01fb326799384abddf1b77bb6ba6a, type: 3}
  leftHand: {fileID: 21300000, guid: 0b64c36a20094b3469138e2a24343b82, type: 3}
  rightUpperArm: {fileID: 21300000, guid: 3c5cb7d4ccb7d004a912384246856054, type: 3}
  rightLowerArm: {fileID: 21300000, guid: 38e188f276acfb445b26189495b2fe69, type: 3}
  rightHand: {fileID: 21300000, guid: bbe76ccb7e242154db25adc31bd2f7c8, type: 3}
  leftUpperLeg: {fileID: 21300000, guid: 8d508ae8a86dee24196fb8ea33d6dd38, type: 3}
  leftLowerLeg: {fileID: 21300000, guid: 926266237efb16e4bb3bb6729371c798, type: 3}
  rightUpperLeg: {fileID: 21300000, guid: c1b2a009889de99429599916d36ae33d, type: 3}
  rightLowerLeg: {fileID: 21300000, guid: c0c0731cb92286c499b29d987185ca4d, type: 3}
