%YAML 1.1
%TAG !u! tag:unity3d.com,2011:
--- !u!114 &11400000
MonoBehaviour:
  m_ObjectHideFlags: 0
  m_PrefabParentObject: {fileID: 0}
  m_PrefabInternal: {fileID: 0}
  m_GameObject: {fileID: 0}
  m_Enabled: 1
  m_EditorHideFlags: 0
  m_Script: {fileID: 11500000, guid: 55ff4081700023345b20a32ab205dd0b, type: 3}
  m_Name: Human1
  m_EditorClassIdentifier: 
  head: {fileID: 21300000, guid: fbe62be342badcf49afc1e0fad89e38d, type: 3}
  eyes: {fileID: 21300000, guid: ae4c8c88747604a4c82e36107d7e7970, type: 3}
  mouth: {fileID: 21300000, guid: e67d04acf5ad2d54e84af5ad74cc2968, type: 3}
  eyebrows: {fileID: 21300000, guid: 30e3062ec0f67264998b40485bb3f0b9, type: 3}
  body: {fileID: 21300000, guid: 9ccf8e25e89f554479e00ee38998ac54, type: 3}
  leftUpperArm: {fileID: 21300000, guid: b90e3871c9b471043b1a3c000ff8f059, type: 3}
  leftLowerArm: {fileID: 21300000, guid: 9f3b59ce5df3fa543b6d68dca0d5eeb4, type: 3}
  leftHand: {fileID: 21300000, guid: d7adfdb9c218bcd418a4dad3d762d252, type: 3}
  rightUpperArm: {fileID: 21300000, guid: b4f98650f47e64145ada89cc0816ddbc, type: 3}
  rightLowerArm: {fileID: 21300000, guid: 71e723ae220f5a24b9b970b576bf28ef, type: 3}
  rightHand: {fileID: 21300000, guid: 90410ff5a32f19d4381fe520b1b26df1, type: 3}
  leftUpperLeg: {fileID: 21300000, guid: cfe2248d42d748a48b4af656d4dc2792, type: 3}
  leftLowerLeg: {fileID: 21300000, guid: d1d1497de1dead342a92a66af1b55c54, type: 3}
  rightUpperLeg: {fileID: 21300000, guid: d305b85aedfeb7643aefbed730ceac5e, type: 3}
  rightLowerLeg: {fileID: 21300000, guid: 47a33c04a0246bc488d22c3e1b5c4f00, type: 3}
