%YAML 1.1
%TAG !u! tag:unity3d.com,2011:
--- !u!114 &11400000
MonoBehaviour:
  m_ObjectHideFlags: 0
  m_PrefabParentObject: {fileID: 0}
  m_PrefabInternal: {fileID: 0}
  m_GameObject: {fileID: 0}
  m_Enabled: 1
  m_EditorHideFlags: 0
  m_Script: {fileID: 11500000, guid: d9dfa825770c5486b9d95384bc7f7a1a, type: 3}
  m_Name: TodoList
  m_EditorClassIdentifier: 
  owners:
  - name: Normal
    color: {r: 1, g: 1, b: 1, a: 1}
    index: 0
  - name: Urgent
    color: {r: 1, g: 0, b: 0, a: 1}
    index: 1
  - name: In Progress
    color: {r: 0, g: 1, b: 1, a: 1}
    index: 2
  - name: Note
    color: {r: 1, g: 0.92156863, b: 0.015686275, a: 1}
    index: 3
  items:
  - owner:
      name: Normal
      color: {r: 1, g: 1, b: 1, a: 1}
      index: 0
    task: Mise en place du timer
    isComplete: 1
  - owner:
      name: Normal
      color: {r: 1, g: 1, b: 1, a: 1}
      index: 0
    task: Restreindre la position de la camera a l'aire de jeu
    isComplete: 1
  - owner:
      name: In Progress
      color: {r: 0, g: 1, b: 1, a: 1}
      index: 2
    task: Mise en place des scriptable Object ALien
    isComplete: 1
  - owner:
      name: In Progress
      color: {r: 0, g: 1, b: 1, a: 1}
      index: 2
    task: Custom Editor pour generer les faux coupables
    isComplete: 1
  - owner:
      name: Normal
      color: {r: 1, g: 1, b: 1, a: 1}
      index: 0
    task: Editor custom pour generer les alien aleatoires
    isComplete: 1
  - owner:
      name: Normal
      color: {r: 1, g: 1, b: 1, a: 1}
      index: 0
    task: Editor Custom pour verifier si des aliens sont en multi
    isComplete: 1
  - owner:
      name: Normal
      color: {r: 1, g: 1, b: 1, a: 1}
      index: 0
    task: "Generer les aliens en m\xEAme temps que le niveau"
    isComplete: 1
  - owner:
      name: Normal
      color: {r: 1, g: 1, b: 1, a: 1}
      index: 0
    task: Generer le niveau en reseau
    isComplete: 1
  - owner:
      name: Normal
      color: {r: 1, g: 1, b: 1, a: 1}
      index: 0
    task: Creation Scriptable object bibliotheque
    isComplete: 1
  - owner:
      name: Normal
      color: {r: 1, g: 1, b: 1, a: 1}
      index: 0
    task: mise en place du bouton alerte
    isComplete: 1
  - owner:
      name: Normal
      color: {r: 1, g: 1, b: 1, a: 1}
      index: 0
    task: "mise en place du syst\xE8m de click sur les aliens"
    isComplete: 1
  - owner:
      name: Normal
      color: {r: 1, g: 1, b: 1, a: 1}
      index: 0
    task: "int\xE9gration graphique"
    isComplete: 1
  - owner:
      name: Normal
      color: {r: 1, g: 1, b: 1, a: 1}
      index: 0
    task: "int\xE9gration sonore"
    isComplete: 1
  - owner:
      name: Normal
      color: {r: 1, g: 1, b: 1, a: 1}
      index: 0
    task: mise en place de la suite des niveaux
    isComplete: 1
  - owner:
      name: Normal
      color: {r: 1, g: 1, b: 1, a: 1}
      index: 0
    task: "Gestion de l'al\xE9atoire pour sebastian"
    isComplete: 1
  - owner:
      name: Urgent
      color: {r: 1, g: 0, b: 0, a: 1}
      index: 1
    task: gestion des l'init des du shader des aliens
    isComplete: 1
  - owner:
      name: Normal
      color: {r: 1, g: 1, b: 1, a: 1}
      index: 0
    task: decoration exterieure
    isComplete: 1
  - owner:
      name: Normal
      color: {r: 1, g: 1, b: 1, a: 1}
      index: 0
    task: restreindre bien la camera
    isComplete: 1
  - owner:
      name: In Progress
      color: {r: 0, g: 1, b: 1, a: 1}
      index: 2
    task: 'faire un build '
    isComplete: 1
  - owner:
      name: In Progress
      color: {r: 0, g: 1, b: 1, a: 1}
      index: 2
    task: Ne pas abandonner le projet
    isComplete: 1
  - owner:
      name: Urgent
      color: {r: 1, g: 0, b: 0, a: 1}
      index: 1
    task: "Progression de la difficult\xE9"
    isComplete: 1
  - owner:
      name: Normal
      color: {r: 1, g: 1, b: 1, a: 1}
      index: 0
    task: clamp pos alien  l'hotel (largeur fixe?)
    isComplete: 1
  - owner:
      name: Urgent
      color: {r: 1, g: 0, b: 0, a: 1}
      index: 1
    task: jouer a overwatch
    isComplete: 1
  - owner:
      name: Urgent
      color: {r: 1, g: 0, b: 0, a: 1}
      index: 1
    task: Manger de pizza aved des copines
    isComplete: 1
  - owner:
      name: Urgent
      color: {r: 1, g: 0, b: 0, a: 1}
      index: 1
    task: Ascenseurs!!
    isComplete: 1
  - owner:
      name: Urgent
      color: {r: 1, g: 0, b: 0, a: 1}
      index: 1
    task: Regler camera
    isComplete: 1
  - owner:
      name: Urgent
      color: {r: 1, g: 0, b: 0, a: 1}
      index: 1
    task: reparer les humains
    isComplete: 1
  - owner:
      name: Normal
      color: {r: 1, g: 1, b: 1, a: 1}
      index: 0
    task: Menu
    isComplete: 1
  - owner:
      name: Normal
      color: {r: 1, g: 1, b: 1, a: 1}
      index: 0
    task: Tuto
    isComplete: 1
  - owner:
      name: Normal
      color: {r: 1, g: 1, b: 1, a: 1}
      index: 0
    task: Lobby
    isComplete: 1
  - owner:
      name: Normal
      color: {r: 1, g: 1, b: 1, a: 1}
      index: 0
    task: reparer retour au menu
    isComplete: 1
  - owner:
      name: Normal
      color: {r: 1, g: 1, b: 1, a: 1}
      index: 0
    task: nouveaux sons
    isComplete: 0
  - owner:
      name: Normal
      color: {r: 1, g: 1, b: 1, a: 1}
      index: 0
    task: verifier les doubons
    isComplete: 1
  - owner:
      name: Normal
      color: {r: 1, g: 1, b: 1, a: 1}
      index: 0
    task: alien qui apparaissent pas
    isComplete: 0
  - owner:
      name: Normal
      color: {r: 1, g: 1, b: 1, a: 1}
      index: 0
    task: Timer chelou
    isComplete: 1
  - owner:
      name: Normal
      color: {r: 1, g: 1, b: 1, a: 1}
      index: 0
    task: Scanners qui se decalent
    isComplete: 1
  - owner:
      name: Normal
      color: {r: 1, g: 1, b: 1, a: 1}
      index: 0
    task: "inversement des contrats si on en capture 2 en m\xEAme temps (a reparer
      si pas la flemme)"
    isComplete: 0
