%YAML 1.1
%TAG !u! tag:unity3d.com,2011:
--- !u!114 &11400000
MonoBehaviour:
  m_ObjectHideFlags: 0
  m_PrefabParentObject: {fileID: 0}
  m_PrefabInternal: {fileID: 0}
  m_GameObject: {fileID: 0}
  m_Enabled: 1
  m_EditorHideFlags: 0
  m_Script: {fileID: 11500000, guid: 9801174c3780ecf479d8de72461a059c, type: 3}
  m_Name: CupritData
  m_EditorClassIdentifier: 
  alienCulprit: {fileID: 11400000, guid: 3b006e95d7e9d684daf196a3b5bf9c60, type: 2}
  alienClones:
  - {fileID: 11400000, guid: f6be2ea0e2ba01148866d288cbd52ad4, type: 2}
  - {fileID: 11400000, guid: 0a0332dfb684ed54786af3afa5063c39, type: 2}
