%YAML 1.1
%TAG !u! tag:unity3d.com,2011:
--- !u!114 &11400000
MonoBehaviour:
  m_ObjectHideFlags: 0
  m_PrefabParentObject: {fileID: 0}
  m_PrefabInternal: {fileID: 0}
  m_GameObject: {fileID: 0}
  m_Enabled: 1
  m_EditorHideFlags: 0
  m_Script: {fileID: 11500000, guid: 9801174c3780ecf479d8de72461a059c, type: 3}
  m_Name: CupritData
  m_EditorClassIdentifier: 
  alienCulprit: {fileID: 11400000, guid: a5a2ce5c3cf517c42aecff88f36e10fb, type: 2}
  alienClones:
  - {fileID: 11400000, guid: f8e131b0db01b7a40a5c14fa615dc392, type: 2}
  - {fileID: 11400000, guid: 378016d5fe9bb4b49ab6338a420044a3, type: 2}
