%YAML 1.1
%TAG !u! tag:unity3d.com,2011:
--- !u!114 &11400000
MonoBehaviour:
  m_ObjectHideFlags: 0
  m_PrefabParentObject: {fileID: 0}
  m_PrefabInternal: {fileID: 0}
  m_GameObject: {fileID: 0}
  m_Enabled: 1
  m_EditorHideFlags: 0
  m_Script: {fileID: 11500000, guid: 9801174c3780ecf479d8de72461a059c, type: 3}
  m_Name: CupritData
  m_EditorClassIdentifier: 
  alienCulprit: {fileID: 11400000, guid: 34e56b634eb0f424eb13a0a0a57b3b76, type: 2}
  alienClones:
  - {fileID: 11400000, guid: c0482b0a66db29b4c9df028f15419bd3, type: 2}
  - {fileID: 11400000, guid: 20b510f6dd16c71459f25e5d78743095, type: 2}
